Real life example • donutsk
…
GDP1 <- filter(GDP, date %in% c(2001, 2022)) |> 
  group_by(date) |>
  mutate(country = if_else(GDP > quantile(GDP, .9), country, "Other")) |> 
  group_by(date, region, region_ISO, country) |> 
  summarise(GDP = sum(GDP), .groups = "drop")

GDP1
#> # A tibble: 54 × 5
#>     date region                region_ISO country         GDP
#>    <dbl> <chr>                 <chr>      <chr>         <dbl>
#>  1  2001 East Asia & Pacific   EAS        Australia   5.33e11
#>  2  2001 East Asia & Pacific   EAS        China       4.08e12
#>  3  2001 East Asia & Pacific   EAS        Indonesia   1.06e12
#>  4  2001 East Asia & Pacific   EAS        Japan       3.55e12
#>  5  2001 East Asia & Pacific   EAS        Korea, Rep. 9.34e11
#>  6  2001 East Asia & Pacific   EAS        Other       1.68e12
#>  7  2001 Europe & Central Asia ECS        France      1.69e12
#>  8  2001 Europe & Central Asia ECS        Germany     2.34e12
#>  9  2001 Europe & Central Asia ECS        Italy       1.60e12
#> 10  2001 Europe & Central Asia ECS        Other       4.37e12
#> # ℹ 44 more rows
…
